…
``` r
synth_fraud_test %>%
 roc_curve(event_label, anomaly_score)  %>%
 mutate(
   fpr = round((1 - specificity), 3),
   tpr = round(sensitivity, 3),
   threshold =  round(.threshold, 3)
 ) %>%
 group_by(tpr) %>%
 summarise(fpr = min(fpr),
           threshold = max(threshold)) %>%
 filter(tpr<=0.12) %>% print()
```

    ## # A tibble: 91 × 3
    ##      tpr   fpr threshold
    ##    <dbl> <dbl>     <dbl>
    ##  1 0         0   Inf    
    ##  2 0.001     0     0.67 
    ##  3 0.002     0     0.663
    ##  4 0.003     0     0.657
    ##  5 0.004     0     0.654
    ##  6 0.005     0     0.652
    ##  7 0.006     0     0.651
    ##  8 0.007     0     0.649
    ##  9 0.008     0     0.648
    ## 10 0.009     0     0.646
    ## # … with 81 more rows
…
## Fit a Random Forest Model w/ Synthetic Labelling

``` r
# -- RF recipe
rf_recipe <- recipe(synthetic_target ~ registration_deposit + 
                       mean_deposit +
                       mean_txn + monetary_returns_5day + monetary_returns_15day + monetary_returns_30day + game_cash_count_3day + distinct_account_3day + days_since_last_pmnt
                       , data=synth_fraud_train) %>% 
  step_impute_mean(all_predictors())

bake(rf_recipe %>% prep(), synth_fraud_train %>% sample_n(1000))
```

    ## # A tibble: 1,000 × 10
    ##    registratio…¹ mean_…² mean_…³ monet…⁴ monet…⁵ monet…⁶ game_…⁷ disti…⁸ days_…⁹
    ##            <dbl>   <dbl>   <dbl>   <dbl>   <dbl>   <dbl>   <dbl>   <dbl>   <dbl>
    ##  1          6559     541     296      97      67      71      29      45   155. 
    ##  2          4530     332     452      54     102      98      37      44   353. 
    ##  3          8867     506     188      83      58     103      34      22   351. 
    ##  4          6066     459     704      77      93      91      61      37   219. 
    ##  5          4329     481     363     134     158      51      64      48   300. 
    ##  6          3964     780     561     104     120      89      65      51   201. 
    ##  7          5723     457     525      75      75     110      38      43    15.8
    ##  8          6704     545     446      90     100      86      37      48   207. 
    ##  9          5482     433     499      67      80     111      48      50    66.4
    ## 10          3936     567     467     131     132      92      63      54    58.9
    ## # … with 990 more rows, 1 more variable: synthetic_target <fct>, and
    ## #   abbreviated variable names ¹​registration_deposit, ²​mean_deposit, ³​mean_txn,
    ## #   ⁴​monetary_returns_5day, ⁵​monetary_returns_15day, ⁶​monetary_returns_30day,
    ## #   ⁷​game_cash_count_3day, ⁸​distinct_account_3day, ⁹​days_since_last_pmnt
…
## Fit a Random Forest Model w/ Actual Labelling

``` r
# -- RF recipe
rf_recipe2 <- recipe(event_label ~ registration_deposit + 
                       mean_deposit +
                       mean_txn + monetary_returns_5day + monetary_returns_15day + monetary_returns_30day + game_cash_count_3day + distinct_account_3day + days_since_last_pmnt
                       , data=synth_fraud_train) %>% 
  step_impute_mean(all_predictors())

bake(rf_recipe2 %>% prep(), synth_fraud_train %>% sample_n(1000))
```

    ## # A tibble: 1,000 × 10
    ##    registratio…¹ mean_…² mean_…³ monet…⁴ monet…⁵ monet…⁶ game_…⁷ disti…⁸ days_…⁹
    ##            <dbl>   <dbl>   <dbl>   <dbl>   <dbl>   <dbl>   <dbl>   <dbl>   <dbl>
    ##  1          3069     539     587     121      97      84      57      61   189. 
    ##  2          5010     287     499      60      71      78      37      52    83.3
    ##  3          4794     673     741     105     100     136      57      43   207. 
    ##  4          3165     698     505     153     104      90      59      50   359. 
    ##  5          4279     548     502     137     132      99      59      48   267. 
    ##  6          6036     481     493      98      87      72      42      51   141. 
    ##  7          6989     422     278     123      80      88      22      47   331. 
    ##  8          3450     519     528     154      96     104      49      53    38.3
    ##  9          5427     458     577      99     105      92      44      53   322. 
    ## 10          6438     500     392     114      79      81      35      39   272. 
    ## # … with 990 more rows, 1 more variable: event_label <fct>, and abbreviated
    ## #   variable names ¹​registration_deposit, ²​mean_deposit, ³​mean_txn,
    ## #   ⁴​monetary_returns_5day, ⁵​monetary_returns_15day, ⁶​monetary_returns_30day,
    ## #   ⁷​game_cash_count_3day, ⁸​distinct_account_3day, ⁹​days_since_last_pmnt
…
